{
  "vm_name": "",
  "created_group": null,
  "image": "ubuntu_16_0402_64_20G_alibase_20180409.vhd",
  "instance_type": "ecs.n4.small",
  "vswitch_id": "vsw-a2di79gekxexvd0ewrdkt",
  "assign_public_ip": true,
  "max_bandwidth_out": 10,
  "host_name": "",
  "password": "YOUR@PASSW)ED",
  "system_disk_category": "cloud_efficiency",
  "system_disk_size": 100,
  "internet_charge_type": "PayByTraffic",
  "cidr_block": "192.168.0.0/16",
  "sg_action": "join",
  "instance_ids": [
    "i-abcd12346",
    "i-abcd12345"
  ],
  "yantram_cloud_credential": {
    "alicloud_access_key": "LTAIjkotmZULSljk",
    "alicloud_secret_key": "1boy3KyUzZoaBqhWmtGj06g7qDLaHK"
  },
  "yantram_alicloud_lifecycle_events": {
    "gcp_project": "integral-hold-289102",
    "gcp_cred_file": "~/Downloads/concise-rampart-288609-3d94f060ecb5.json",
    "gcp_cred_kind": "serviceaccount"
  }
}