{
  "vm_name": "test_vm",
  "disk_size": 45,
  "source_image": "projects/ubuntu-os-cloud/global/images/family/ubuntu-1604-lts",
  "yantram_cloud_credential": {
    "gcp_project": "concise-rampart-288609",
    "gcp_cred_file": "~/Downloads/concise-rampart-288609-3d94f060ecb5.json",
    "gcp_cred_kind": "serviceaccount"
  },
  "yantram_gcp_lifecycle_events": {
    "gcp_project": "integral-hold-289102",
    "gcp_cred_file": "~/Downloads/concise-rampart-288609-3d94f060ecb5.json",
    "gcp_cred_kind": "serviceaccount"
  }
}